Sync Time
341.933
Memcpy Time
305.731
DP_Time 05
251.879
DP_Time 10
194.402
DP_Time 15
195.806
DP_Time 20
195.369
DP_Time 25
194.492
DP_Time 30
196.104
DP_Time 35
202.729
DP_Time 40
194.994
DP_Time 45
193.923
DP_Time 50
199.06
DP_Time 55
195.294
DP_Time 60
195.839
DP_Time 65
196.299
DP_Time 70
195.832
DP_Time 75
196.158
DP_Time 80
196.231
Sim_Time
171.375