# started on Tue Apr 24 00:18:59 2018


 Performance counter stats for './a.out 50002 110':

     3,877,137,983      cache-misses              #   57.400 % of all cache refs      (60.00%)
     6,754,576,068      cache-references                                              (80.00%)
     3,637,393,227      LLC-load-misses           #   74.12% of all LL-cache hits     (80.00%)
     4,907,373,696      LLC-load                                                      (80.00%)
       191,288,826      LLC-store-misses                                              (40.00%)

     858.606665656 seconds time elapsed

