# started on Fri Apr 20 11:09:07 2018


 Performance counter stats for './a.out 30002 20':

    33,998,148,604      cache-misses              #   86.460 % of all cache refs      (60.01%)
    39,322,260,355      cache-references                                              (80.00%)
       654,862,512      LLC-load-misses           #   41.88% of all LL-cache hits     (79.99%)
     1,563,814,749      LLC-loads                                                     (80.00%)
       231,008,397      LLC-store-misses                                              (40.01%)

     296.533698464 seconds time elapsed

